tarea8/codigo/probador.vcd
$date
	Sat Oct 17 23:34:26 2020
$end
$version
	Icarus Verilog
$end
$timescale
	1s
$end
$scope module BUF $end
$var wire 1 ! A $end
$var wire 1 " Y $end
$upscope $end
$scope module BancoPruebas $end
$var wire 5 # salida_gray_no_error [4:0] $end
$var wire 5 $ salida_gray [4:0] $end
$var wire 1 % reset_L $end
$var wire 1 & enable $end
$var wire 1 ' clk $end
$scope module contador $end
$var wire 1 % reset_L $end
$var wire 1 & enable $end
$var wire 1 ' clk $end
$var reg 5 ( contador [4:0] $end
$var reg 5 ) salida_gray_no_error [4:0] $end
$upscope $end
$scope module probador1 $end
$var wire 5 * salida_gray_no_error [4:0] $end
$var wire 5 + salida_gray [4:0] $end
$var reg 1 ' clk $end
$var reg 1 & enable $end
$var reg 1 % reset_L $end
$upscope $end
$scope module synth $end
$var wire 1 ' clk $end
$var wire 1 & enable $end
$var wire 1 % reset_L $end
$var wire 2 , xor_output_cnt [1:0] $end
$var wire 5 - salida_gray [4:0] $end
$var wire 5 . count [4:0] $end
$var wire 1 / _046_ $end
$var wire 1 0 _045_ $end
$var wire 1 1 _044_ $end
$var wire 1 2 _043_ $end
$var wire 1 3 _042_ $end
$var wire 1 4 _041_ $end
$var wire 1 5 _040_ $end
$var wire 1 6 _039_ $end
$var wire 1 7 _038_ $end
$var wire 1 8 _037_ $end
$var wire 1 9 _036_ $end
$var wire 1 : _035_ $end
$var wire 1 ; _034_ $end
$var wire 1 < _033_ $end
$var wire 1 = _032_ $end
$var wire 1 > _031_ $end
$var wire 1 ? _030_ $end
$var wire 1 @ _029_ $end
$var wire 1 A _028_ $end
$var wire 1 B _027_ $end
$var wire 1 C _026_ $end
$var wire 1 D _025_ $end
$var wire 1 E _024_ $end
$var wire 1 F _023_ $end
$var wire 1 G _022_ $end
$var wire 1 H _021_ $end
$var wire 1 I _020_ $end
$var wire 1 J _019_ $end
$var wire 1 K _018_ $end
$var wire 1 L _017_ $end
$var wire 1 M _016_ $end
$var wire 1 N _015_ $end
$var wire 1 O _014_ $end
$var wire 1 P _013_ $end
$var wire 1 Q _012_ $end
$var wire 1 R _011_ $end
$var wire 1 S _010_ $end
$var wire 1 T _009_ $end
$var wire 1 U _008_ $end
$var wire 1 V _007_ $end
$var wire 1 W _006_ $end
$var wire 1 X _005_ $end
$var wire 1 Y _004_ $end
$var wire 1 Z _003_ $end
$var wire 1 [ _002_ $end
$var wire 2 \ _001_ [1:0] $end
$var wire 5 ] _000_ [4:0] $end
$scope module _047_ $end
$var wire 1 ^ A $end
$var wire 1 [ Y $end
$upscope $end
$scope module _048_ $end
$var wire 1 _ A $end
$var wire 1 Z Y $end
$upscope $end
$scope module _049_ $end
$var wire 1 ` A $end
$var wire 1 Y Y $end
$upscope $end
$scope module _050_ $end
$var wire 1 a A $end
$var wire 1 X Y $end
$upscope $end
$scope module _051_ $end
$var wire 1 b A $end
$var wire 1 W Y $end
$upscope $end
$scope module _052_ $end
$var wire 1 & A $end
$var wire 1 c B $end
$var wire 1 V Y $end
$upscope $end
$scope module _053_ $end
$var wire 1 V A $end
$var wire 1 U Y $end
$upscope $end
$scope module _054_ $end
$var wire 1 X A $end
$var wire 1 W B $end
$var wire 1 T Y $end
$upscope $end
$scope module _055_ $end
$var wire 1 d A $end
$var wire 1 e B $end
$var wire 1 S Y $end
$upscope $end
$scope module _056_ $end
$var wire 1 U A $end
$var wire 1 T B $end
$var wire 1 R Y $end
$upscope $end
$scope module _057_ $end
$var wire 1 f A $end
$var wire 1 g B $end
$var wire 1 Q Y $end
$upscope $end
$scope module _058_ $end
$var wire 1 Q A $end
$var wire 1 P Y $end
$upscope $end
$scope module _059_ $end
$var wire 1 h A $end
$var wire 1 i B $end
$var wire 1 O Y $end
$upscope $end
$scope module _060_ $end
$var wire 1 X A $end
$var wire 1 V B $end
$var wire 1 N Y $end
$upscope $end
$scope module _061_ $end
$var wire 1 j A $end
$var wire 1 k B $end
$var wire 1 M Y $end
$upscope $end
$scope module _062_ $end
$var wire 1 M A $end
$var wire 1 L Y $end
$upscope $end
$scope module _063_ $end
$var wire 1 [ A $end
$var wire 1 R B $end
$var wire 1 K Y $end
$upscope $end
$scope module _064_ $end
$var wire 1 R A $end
$var wire 1 Q B $end
$var wire 1 J Y $end
$upscope $end
$scope module _065_ $end
$var wire 1 l A $end
$var wire 1 K B $end
$var wire 1 I Y $end
$upscope $end
$scope module _066_ $end
$var wire 1 Z A $end
$var wire 1 I B $end
$var wire 1 H Y $end
$upscope $end
$scope module _067_ $end
$var wire 1 m A $end
$var wire 1 J B $end
$var wire 1 G Y $end
$upscope $end
$scope module _068_ $end
$var wire 1 Z A $end
$var wire 1 I B $end
$var wire 1 F Y $end
$upscope $end
$scope module _069_ $end
$var wire 1 % A $end
$var wire 1 F B $end
$var wire 1 E Y $end
$upscope $end
$scope module _070_ $end
$var wire 1 H A $end
$var wire 1 E B $end
$var wire 1 n Y $end
$upscope $end
$scope module _071_ $end
$var wire 1 Y A $end
$var wire 1 G B $end
$var wire 1 D Y $end
$upscope $end
$scope module _072_ $end
$var wire 1 Y A $end
$var wire 1 G B $end
$var wire 1 C Y $end
$upscope $end
$scope module _073_ $end
$var wire 1 % A $end
$var wire 1 C B $end
$var wire 1 B Y $end
$upscope $end
$scope module _074_ $end
$var wire 1 D A $end
$var wire 1 B B $end
$var wire 1 o Y $end
$upscope $end
$scope module _075_ $end
$var wire 1 & A $end
$var wire 1 p B $end
$var wire 1 A Y $end
$upscope $end
$scope module _076_ $end
$var wire 1 % A $end
$var wire 1 V B $end
$var wire 1 @ Y $end
$upscope $end
$scope module _077_ $end
$var wire 1 A A $end
$var wire 1 @ B $end
$var wire 1 q Y $end
$upscope $end
$scope module _078_ $end
$var wire 1 X A $end
$var wire 1 V B $end
$var wire 1 ? Y $end
$upscope $end
$scope module _079_ $end
$var wire 1 % A $end
$var wire 1 ? B $end
$var wire 1 > Y $end
$upscope $end
$scope module _080_ $end
$var wire 1 N A $end
$var wire 1 > B $end
$var wire 1 r Y $end
$upscope $end
$scope module _081_ $end
$var wire 1 s A $end
$var wire 1 N B $end
$var wire 1 = Y $end
$upscope $end
$scope module _082_ $end
$var wire 1 % A $end
$var wire 1 R B $end
$var wire 1 < Y $end
$upscope $end
$scope module _083_ $end
$var wire 1 = A $end
$var wire 1 < B $end
$var wire 1 t Y $end
$upscope $end
$scope module _084_ $end
$var wire 1 [ A $end
$var wire 1 R B $end
$var wire 1 ; Y $end
$upscope $end
$scope module _085_ $end
$var wire 1 % A $end
$var wire 1 ; B $end
$var wire 1 : Y $end
$upscope $end
$scope module _086_ $end
$var wire 1 K A $end
$var wire 1 : B $end
$var wire 1 u Y $end
$upscope $end
$scope module _087_ $end
$var wire 1 v A $end
$var wire 1 K B $end
$var wire 1 9 Y $end
$upscope $end
$scope module _088_ $end
$var wire 1 % A $end
$var wire 1 I B $end
$var wire 1 8 Y $end
$upscope $end
$scope module _089_ $end
$var wire 1 9 A $end
$var wire 1 8 B $end
$var wire 1 w Y $end
$upscope $end
$scope module _090_ $end
$var wire 1 x A $end
$var wire 1 y B $end
$var wire 1 7 Y $end
$upscope $end
$scope module _091_ $end
$var wire 1 z A $end
$var wire 1 { B $end
$var wire 1 6 Y $end
$upscope $end
$scope module _092_ $end
$var wire 1 Z A $end
$var wire 1 | B $end
$var wire 1 5 Y $end
$upscope $end
$scope module _093_ $end
$var wire 1 S A $end
$var wire 1 5 B $end
$var wire 1 4 Y $end
$upscope $end
$scope module _094_ $end
$var wire 1 6 A $end
$var wire 1 4 B $end
$var wire 1 3 Y $end
$upscope $end
$scope module _095_ $end
$var wire 1 3 A $end
$var wire 1 2 Y $end
$upscope $end
$scope module _096_ $end
$var wire 1 O A $end
$var wire 1 2 B $end
$var wire 1 1 Y $end
$upscope $end
$scope module _097_ $end
$var wire 1 7 A $end
$var wire 1 1 B $end
$var wire 1 } Y $end
$upscope $end
$scope module _098_ $end
$var wire 1 ~ A $end
$var wire 1 !" B $end
$var wire 1 0 Y $end
$upscope $end
$scope module _099_ $end
$var wire 1 T A $end
$var wire 1 0 B $end
$var wire 1 "" Y $end
$upscope $end
$scope module _100_ $end
$var wire 1 #" A $end
$var wire 1 $" B $end
$var wire 1 / Y $end
$upscope $end
$scope module _101_ $end
$var wire 1 L A $end
$var wire 1 / B $end
$var wire 1 %" Y $end
$upscope $end
$scope module _102_ $end
$var wire 1 P A $end
$var wire 1 6 B $end
$var wire 1 &" Y $end
$upscope $end
$scope module _103_ $end
$var wire 1 ' C $end
$var wire 1 '" D $end
$var reg 1 (" Q $end
$upscope $end
$scope module _104_ $end
$var wire 1 ' C $end
$var wire 1 )" D $end
$var reg 1 *" Q $end
$upscope $end
$scope module _105_ $end
$var wire 1 ' C $end
$var wire 1 +" D $end
$var reg 1 ," Q $end
$upscope $end
$scope module _106_ $end
$var wire 1 ' C $end
$var wire 1 -" D $end
$var reg 1 ." Q $end
$upscope $end
$scope module _107_ $end
$var wire 1 ' C $end
$var wire 1 /" D $end
$var reg 1 0" Q $end
$upscope $end
$scope module _108_ $end
$var wire 1 ' C $end
$var wire 1 1" D $end
$var reg 1 2" Q $end
$upscope $end
$scope module _109_ $end
$var wire 1 ' C $end
$var wire 1 3" D $end
$var reg 1 4" Q $end
$upscope $end
$upscope $end
$upscope $end
$scope module DFFSR $end
$var wire 1 5" C $end
$var wire 1 6" D $end
$var wire 1 7" R $end
$var wire 1 8" S $end
$var reg 1 9" Q $end
$upscope $end
$enddefinitions $end
#0
$dumpvars
x9"
z8"
z7"
z6"
z5"
x4"
03"
x2"
01"
x0"
0/"
x."
0-"
x,"
0+"
x*"
0)"
x("
0'"
x&"
x%"
x$"
x#"
x""
x!"
x~
x}
x|
x{
xz
xy
xx
0w
xv
0u
0t
xs
0r
0q
xp
0o
0n
xm
xl
xk
xj
xi
xh
xg
xf
xe
xd
xc
xb
xa
x`
x_
x^
b0 ]
b0 \
x[
xZ
xY
xX
xW
1V
0U
xT
xS
1R
xQ
xP
xO
0N
xM
xL
0K
0J
1I
0H
1G
xF
1E
0D
xC
1B
xA
1@
x?
1>
x=
1<
x;
1:
x9
18
x7
x6
x5
x4
x3
x2
x1
x0
x/
bx .
bx -
bx ,
bx +
bz *
bx )
bx (
0'
0&
0%
bx $
bx #
z"
z!
$end
#1
02
13
0}
01
0""
0%"
0&"
04
01"
03"
0'"
0)"
0+"
0-"
0/"
0?
0T
0L
0;
0P
0F
0C
0n
b0 \
0o
0q
0r
0t
0u
b0 ]
0w
1A
17
1O
10
1=
1S
1/
1M
16
19
1Q
15
1X
1W
1[
1Z
1Y
1E
1B
0@
1>
0<
1:
08
0x
0p
0h
0c
0~
0y
0i
0d
0a
0$"
0!"
0s
0k
0e
0b
0#"
0z
0j
0f
0^
b0 $
b0 +
b0 -
0{
0v
0l
0g
0m
0_
0|
0`
b0 (
b0 #
b0 )
0("
0*"
0,"
0."
b0 .
00"
02"
b0 ,
04"
1%
1'
#2
0'
#3
1'"
b1 ]
1q
0A
1&
b1 (
1'
#4
0'
#5
1)"
1r
0'"
b10 ]
0q
0>
b1 $
b1 +
b1 -
1}
1@
1?
1U
07
0V
1x
1p
1h
1c
b10 (
b1 #
b1 )
b1 .
1("
1'
#6
0'
#7
1'"
b11 ]
1q
b11 $
b11 +
b11 -
1""
0@
0U
00
1V
0X
1~
1y
1i
1d
1a
0x
0p
0h
0c
1*"
b10 .
0("
b11 (
b11 #
b11 )
1'
#8
0'
#9
1+"
1t
0)"
0'"
b10 $
b10 +
b10 -
0}
0r
0=
b100 ]
0q
11
1N
1@
1U
0O
0V
1x
1p
1h
1c
b100 (
b10 #
b10 )
b11 .
1("
1'
#10
0'
#11
1'"
0)"
1q
b101 ]
0r
1>
b110 $
b110 +
b110 -
1%"
01
0@
0N
0?
0U
0/
17
1O
1V
0W
1X
1$"
1!"
1s
1k
1e
1b
0~
0y
0i
0d
0a
0x
0p
0h
0c
1,"
0*"
b100 .
0("
b101 (
b110 #
b110 )
1'
#12
0'
#13
1)"
1r
0'"
b110 ]
0q
0>
b111 $
b111 +
b111 -
1}
1@
1?
1U
07
0V
1x
1p
1h
1c
b110 (
b111 #
b111 )
b101 .
1("
1'
#14
0'
#15
1'"
b111 ]
1q
b101 $
b101 +
b101 -
0""
0@
1T
0U
0S
1V
0X
1~
1y
1i
1d
1a
0x
0p
0h
0c
1*"
b110 .
0("
b111 (
b101 #
b101 )
1'
#16
0'
#17
1-"
1u
0+"
0t
0:
1<
1;
0)"
0'"
b100 $
b100 +
b100 -
0}
0r
b1000 ]
0q
0R
11
1N
1@
1U
0O
0V
1x
1p
1h
1c
b1000 (
b100 #
b100 )
b111 .
1("
1'
#18
0'
#19
0/"
0w
0<
1'"
1-"
0)"
1q
1u
19
b1001 ]
0r
1=
1>
1R
b1100 $
b1100 +
b1100 -
1&"
01
0@
0K
0T
0N
0?
0U
06
10
1S
17
1O
1V
0[
1W
1X
1#"
1z
1j
1f
1^
0$"
0!"
0s
0k
0e
0b
0~
0y
0i
0d
0a
0x
0p
0h
0c
1."
0,"
0*"
b1000 .
0("
b1001 (
b1100 #
b1100 )
1'
#20
0'
#21
1)"
1r
0'"
b1010 ]
0q
0>
b1101 $
b1101 +
b1101 -
1}
1@
1?
1U
07
0V
1x
1p
1h
1c
b1010 (
b1101 #
b1101 )
b1001 .
1("
1'
#22
0'
#23
1'"
b1011 ]
1q
b1111 $
b1111 +
b1111 -
1""
0@
0U
00
1V
0X
1~
1y
1i
1d
1a
0x
0p
0h
0c
1*"
b1010 .
0("
b1011 (
b1111 #
b1111 )
1'
#24
0'
#25
1+"
1t
0)"
0'"
b1110 $
b1110 +
b1110 -
0}
0r
0=
b1100 ]
0q
11
1N
1@
1U
0O
0V
1x
1p
1h
1c
b1100 (
b1110 #
b1110 )
b1011 .
1("
1'
#26
0'
#27
1'"
0)"
1q
b1010 $
b1010 +
b1010 -
0%"
b1101 ]
0r
1>
01
0@
1L
0N
0?
0U
0M
17
1O
1V
0W
1X
1$"
1!"
1s
1k
1e
1b
0~
0y
0i
0d
0a
0x
0p
0h
0c
1,"
0*"
b1100 .
0("
b1101 (
b1010 #
b1010 )
1'
#28
0'
#29
1)"
1r
0'"
b1110 ]
0q
0>
b1011 $
b1011 +
b1011 -
1}
1@
1?
1U
07
0V
1x
1p
1h
1c
b1110 (
b1011 #
b1011 )
b1101 .
1("
1'
#30
0'
#31
1'"
b1111 ]
1q
b1001 $
b1001 +
b1001 -
0""
0@
1T
0U
0S
1V
0X
1~
1y
1i
1d
1a
0x
0p
0h
0c
1*"
b1110 .
0("
b1111 (
b1001 #
b1001 )
1'
#32
0'
#33
1/"
1w
0-"
0+"
0u
09
0t
1K
1<
0)"
0'"
b1000 $
b1000 +
b1000 -
0}
0r
b10000 ]
0q
0R
11
1N
1@
1U
0O
0V
1x
1p
1h
1c
b10000 (
b1000 #
b1000 )
b1111 .
1("
1'
#34
0'
#35
01"
1:
b0 \
0n
1/"
0<
0;
1'"
1E
1w
0-"
0)"
1q
0u
b10001 ]
0r
1=
1>
1R
0F
08
01
0@
0K
0L
0T
0N
0?
0U
1I
1/
1M
10
1S
17
1O
1V
1[
1W
1X
b11000 $
b11000 +
b11000 -
1{
1v
1l
1g
0#"
0z
0j
0f
0^
0$"
0!"
0s
0k
0e
0b
0~
0y
0i
0d
0a
0x
0p
0h
0c
10"
0."
0,"
0*"
b10000 .
0("
b10001 (
b11000 #
b11000 )
1'
#36
0'
#37
1)"
1r
0'"
b10010 ]
0q
0>
b11001 $
b11001 +
b11001 -
1}
1@
1?
1U
07
0V
1x
1p
1h
1c
b10010 (
b11001 #
b11001 )
b10001 .
1("
1'
#38
0'
#39
1'"
b10011 ]
1q
b11011 $
b11011 +
b11011 -
1""
0@
0U
00
1V
0X
1~
1y
1i
1d
1a
0x
0p
0h
0c
1*"
b10010 .
0("
b10011 (
b11011 #
b11011 )
1'
#40
0'
#41
1+"
1t
0)"
0'"
b11010 $
b11010 +
b11010 -
0}
0r
0=
b10100 ]
0q
11
1N
1@
1U
0O
0V
1x
1p
1h
1c
b10100 (
b11010 #
b11010 )
b10011 .
1("
1'
#42
0'
#43
1'"
0)"
1q
b10101 ]
0r
1>
b11110 $
b11110 +
b11110 -
1%"
01
0@
0N
0?
0U
0/
17
1O
1V
0W
1X
1$"
1!"
1s
1k
1e
1b
0~
0y
0i
0d
0a
0x
0p
0h
0c
1,"
0*"
b10100 .
0("
b10101 (
b11110 #
b11110 )
1'
#44
0'
#45
1)"
1r
0'"
b10110 ]
0q
0>
b11111 $
b11111 +
b11111 -
1}
1@
1?
1U
07
0V
1x
1p
1h
1c
b10110 (
b11111 #
b11111 )
b10101 .
1("
1'
#46
0'
#47
1'"
b10111 ]
1q
b11101 $
b11101 +
b11101 -
0""
0@
1T
0U
0S
1V
0X
1~
1y
1i
1d
1a
0x
0p
0h
0c
1*"
b10110 .
0("
b10111 (
b11101 #
b11101 )
1'
#48
0'
#49
1-"
1u
0+"
0t
0:
1<
1;
0)"
0'"
b11100 $
b11100 +
b11100 -
0}
0r
b11000 ]
0q
0R
11
1N
1@
1U
0O
0V
1x
1p
1h
1c
b11000 (
b11100 #
b11100 )
b10111 .
1("
1'
#50
0'
#51
01"
b0 \
0n
1/"
1E
1w
0F
08
0<
1'"
1-"
0)"
1q
b10100 $
b10100 +
b10100 -
0&"
1I
1u
b11001 ]
0r
1=
1>
1R
0J
01
0@
1P
0K
0T
0N
0?
0U
0Q
10
1S
17
1O
1V
0[
1W
1X
1#"
1z
1j
1f
1^
0$"
0!"
0s
0k
0e
0b
0~
0y
0i
0d
0a
0x
0p
0h
0c
1."
0,"
0*"
b11000 .
0("
b11001 (
b10100 #
b10100 )
1'
#52
0'
#53
1)"
1r
0'"
b11010 ]
0q
0>
b10101 $
b10101 +
b10101 -
1}
1@
1?
1U
07
0V
1x
1p
1h
1c
b11010 (
b10101 #
b10101 )
b11001 .
1("
1'
#54
0'
#55
1'"
b11011 ]
1q
b10111 $
b10111 +
b10111 -
1""
0@
0U
00
1V
0X
1~
1y
1i
1d
1a
0x
0p
0h
0c
1*"
b11010 .
0("
b11011 (
b10111 #
b10111 )
1'
#56
0'
#57
1+"
1t
0)"
0'"
b10110 $
b10110 +
b10110 -
0}
0r
0=
b11100 ]
0q
11
1N
1@
1U
0O
0V
1x
1p
1h
1c
b11100 (
b10110 #
b10110 )
b11011 .
1("
1'
#58
0'
#59
1'"
0)"
1q
b10010 $
b10010 +
b10010 -
0%"
b11101 ]
0r
1>
01
0@
1L
0N
0?
0U
0M
17
1O
1V
0W
1X
1$"
1!"
1s
1k
1e
1b
0~
0y
0i
0d
0a
0x
0p
0h
0c
1,"
0*"
b11100 .
0("
b11101 (
b10010 #
b10010 )
1'
#60
0'
#61
1)"
1r
0'"
b11110 ]
0q
0>
b10011 $
b10011 +
b10011 -
1}
1@
1?
1U
07
0V
1x
1p
1h
1c
b11110 (
b10011 #
b10011 )
b11101 .
1("
1'
#62
0'
#63
1'"
b11111 ]
1q
b10001 $
b10001 +
b10001 -
0""
0@
1T
0U
0S
1V
0X
1~
1y
1i
1d
1a
0x
0p
0h
0c
1*"
b11110 .
0("
b11111 (
b10001 #
b10001 )
1'
#64
0'
#65
11"
b1 \
1n
0/"
0E
0w
1F
18
0-"
0+"
0I
0u
0t
1K
1J
1<
0)"
0'"
b10000 $
b10000 +
b10000 -
0}
0r
b0 ]
0q
0R
11
1N
1@
1U
0O
0V
1x
1p
1h
1c
b0 (
b10000 #
b10000 )
b11111 .
1("
1'
#66
0'
#67
03"
1:
b1 \
0o
0<
0;
1'"
1B
0-"
0)"
1q
0u
19
b1 ]
0r
1=
1>
1R
0C
08
0J
01
0@
0P
0K
0L
0T
0N
0?
0U
1G
1I
16
1Q
1/
1M
10
1S
17
1O
1V
0Z
1[
1W
1X
1m
1_
b0 $
b0 +
b0 -
0{
0v
0l
0g
0#"
0z
0j
0f
0^
0$"
0!"
0s
0k
0e
0b
0~
0y
0i
0d
0a
0x
0p
0h
0c
b1 ,
12"
00"
0."
0,"
0*"
b0 .
0("
b1 (
b0 #
b0 )
1'
#68
0'
#69
1)"
1r
0'"
b10 ]
0q
0>
b1 $
b1 +
b1 -
1}
1@
1?
1U
07
0V
1x
1p
1h
1c
b10 (
b1 #
b1 )
b1 .
1("
1'
#70
0'
#71
1'"
b11 ]
1q
b11 $
b11 +
b11 -
1""
0@
0U
00
1V
0X
1~
1y
1i
1d
1a
0x
0p
0h
0c
1*"
b10 .
0("
b11 (
b11 #
b11 )
1'
#72
0'
#73
1+"
1t
0)"
0'"
b10 $
b10 +
b10 -
0}
0r
0=
b100 ]
0q
11
1N
1@
1U
0O
0V
1x
1p
1h
1c
b100 (
b10 #
b10 )
b11 .
1("
1'
#74
0'
#75
1'"
0)"
1q
b101 ]
0r
1>
b110 $
b110 +
b110 -
1%"
01
0@
0N
0?
0U
0/
17
1O
1V
0W
1X
1$"
1!"
1s
1k
1e
1b
0~
0y
0i
0d
0a
0x
0p
0h
0c
1,"
0*"
b100 .
0("
b101 (
b110 #
b110 )
1'
#76
0'
#77
1)"
1r
0'"
b110 ]
0q
0>
b111 $
b111 +
b111 -
1}
1@
1?
1U
07
0V
1x
1p
1h
1c
b110 (
b111 #
b111 )
b101 .
1("
1'
#78
0'
#79
1'"
b111 ]
1q
b101 $
b101 +
b101 -
0""
0@
1T
0U
0S
1V
0X
1~
1y
1i
1d
1a
0x
0p
0h
0c
1*"
b110 .
0("
b111 (
b101 #
b101 )
1'
#80
0'
#81
1-"
1u
0+"
0t
0:
1<
1;
0)"
0'"
b100 $
b100 +
b100 -
0}
0r
b1000 ]
0q
0R
11
1N
1@
1U
0O
0V
1x
1p
1h
1c
b1000 (
b100 #
b100 )
b111 .
1("
1'
#82
0'
#83
0/"
0w
0<
1'"
1-"
0)"
1q
1u
19
b1001 ]
0r
1=
1>
1R
b1100 $
b1100 +
b1100 -
1&"
01
0@
0K
0T
0N
0?
0U
06
10
1S
17
1O
1V
0[
1W
1X
1#"
1z
1j
1f
1^
0$"
0!"
0s
0k
0e
0b
0~
0y
0i
0d
0a
0x
0p
0h
0c
1."
0,"
0*"
b1000 .
0("
b1001 (
b1100 #
b1100 )
1'
#84
0'
#85
1)"
1r
0'"
b1010 ]
0q
0>
b1101 $
b1101 +
b1101 -
1}
1@
1?
1U
07
0V
1x
1p
1h
1c
b1010 (
b1101 #
b1101 )
b1001 .
1("
1'
#86
0'
#87
1'"
b1011 ]
1q
b1111 $
b1111 +
b1111 -
1""
0@
0U
00
1V
0X
1~
1y
1i
1d
1a
0x
0p
0h
0c
1*"
b1010 .
0("
b1011 (
b1111 #
b1111 )
1'
#88
0'
#89
1+"
1t
0)"
0'"
b1110 $
b1110 +
b1110 -
0}
0r
0=
b1100 ]
0q
11
1N
1@
1U
0O
0V
1x
1p
1h
1c
b1100 (
b1110 #
b1110 )
b1011 .
1("
1'
#90
0'
#91
1'"
0)"
1q
b1010 $
b1010 +
b1010 -
0%"
b1101 ]
0r
1>
01
0@
1L
0N
0?
0U
0M
17
1O
1V
0W
1X
1$"
1!"
1s
1k
1e
1b
0~
0y
0i
0d
0a
0x
0p
0h
0c
1,"
0*"
b1100 .
0("
b1101 (
b1010 #
b1010 )
1'
#92
0'
#93
1)"
1r
0'"
b1110 ]
0q
0>
b1011 $
b1011 +
b1011 -
1}
1@
1?
1U
07
0V
1x
1p
1h
1c
b1110 (
b1011 #
b1011 )
b1101 .
1("
1'
#94
0'
#95
1'"
b1111 ]
1q
b1001 $
b1001 +
b1001 -
0""
0@
1T
0U
0S
1V
0X
1~
1y
1i
1d
1a
0x
0p
0h
0c
1*"
b1110 .
0("
b1111 (
b1001 #
b1001 )
1'
#96
0'
#97
1/"
1w
0-"
0+"
0u
09
0t
1K
1<
0)"
0'"
b1000 $
b1000 +
b1000 -
0}
0r
b10000 ]
0q
0R
11
1N
1@
1U
0O
0V
1x
1p
1h
1c
b10000 (
b1000 #
b1000 )
b1111 .
1("
1'
#98
0'
#99
1:
11"
1/"
0<
0;
1'"
b1 \
1n
1w
0-"
0)"
1q
0u
b10001 ]
0r
1=
1>
1R
0H
08
01
0@
0K
0L
0T
0N
0?
0U
1I
1/
1M
10
1S
17
1O
1V
1[
1W
1X
b11000 $
b11000 +
b11000 -
1{
1v
1l
1g
0#"
0z
0j
0f
0^
0$"
0!"
0s
0k
0e
0b
0~
0y
0i
0d
0a
0x
0p
0h
0c
10"
0."
0,"
0*"
b10000 .
0("
b10001 (
b11000 #
b11000 )
1'
#100
0'
#101
1)"
1r
0'"
b10010 ]
0q
0>
b11001 $
b11001 +
b11001 -
1}
1@
1?
1U
07
0V
1x
1p
1h
1c
b10010 (
b11001 #
b11001 )
b10001 .
1("
1'
#102
0'
#103
1'"
b10011 ]
1q
b11011 $
b11011 +
b11011 -
1""
0@
0U
00
1V
0X
1~
1y
1i
1d
1a
0x
0p
0h
0c
1*"
b10010 .
0("
b10011 (
b11011 #
b11011 )
1'
#104
0'
#105
1+"
1t
0)"
0'"
b11010 $
b11010 +
b11010 -
0}
0r
0=
b10100 ]
0q
11
1N
1@
1U
0O
0V
1x
1p
1h
1c
b10100 (
b11010 #
b11010 )
b10011 .
1("
1'
#106
0'
#107
1'"
0)"
1q
b10101 ]
0r
1>
b11110 $
b11110 +
b11110 -
1%"
01
0@
0N
0?
0U
0/
17
1O
1V
0W
1X
1$"
1!"
1s
1k
1e
1b
0~
0y
0i
0d
0a
0x
0p
0h
0c
1,"
0*"
b10100 .
0("
b10101 (
b11110 #
b11110 )
1'
#108
0'
#109
1)"
1r
0'"
b10110 ]
0q
0>
b11111 $
b11111 +
b11111 -
1}
1@
1?
1U
07
0V
1x
1p
1h
1c
b10110 (
b11111 #
b11111 )
b10101 .
1("
1'
#110
0'
#111
1'"
b10111 ]
1q
b11101 $
b11101 +
b11101 -
0""
0@
1T
0U
0S
1V
0X
1~
1y
1i
1d
1a
0x
0p
0h
0c
1*"
b10110 .
0("
b10111 (
b11101 #
b11101 )
1'
#112
0'
#113
1-"
1u
0+"
0t
0:
1<
1;
0)"
0'"
b11100 $
b11100 +
b11100 -
0}
0r
b11000 ]
0q
0R
11
1N
1@
1U
0O
0V
1x
1p
1h
1c
b11000 (
b11100 #
b11100 )
b10111 .
1("
1'
#114
0'
#115
03"
0o
1B
11"
1/"
b1 \
1n
1w
0C
0H
08
0<
1'"
1G
1-"
0)"
1q
b10100 $
b10100 +
b10100 -
0&"
1I
1u
b11001 ]
0r
1=
1>
1R
0J
01
0@
1P
0K
0T
0N
0?
0U
0Q
10
1S
17
1O
1V
0[
1W
1X
1#"
1z
1j
1f
1^
0$"
0!"
0s
0k
0e
0b
0~
0y
0i
0d
0a
0x
0p
0h
0c
1."
0,"
0*"
b11000 .
0("
b11001 (
b10100 #
b10100 )
1'
#116
0'
#117
1)"
1r
0'"
b11010 ]
0q
0>
b10101 $
b10101 +
b10101 -
1}
1@
1?
1U
07
0V
1x
1p
1h
1c
b11010 (
b10101 #
b10101 )
b11001 .
1("
1'
#118
0'
#119
1'"
b11011 ]
1q
b10111 $
b10111 +
b10111 -
1""
0@
0U
00
1V
0X
1~
1y
1i
1d
1a
0x
0p
0h
0c
1*"
b11010 .
0("
b11011 (
b10111 #
b10111 )
1'
#120
0'
#121
1+"
1t
0)"
0'"
b10110 $
b10110 +
b10110 -
0}
0r
0=
b11100 ]
0q
11
1N
1@
1U
0O
0V
1x
1p
1h
1c
b11100 (
b10110 #
b10110 )
b11011 .
1("
1'
#122
0'
#123
1'"
0)"
1q
b10010 $
b10010 +
b10010 -
0%"
b11101 ]
0r
1>
01
0@
1L
0N
0?
0U
0M
17
1O
1V
0W
1X
1$"
1!"
1s
1k
1e
1b
0~
0y
0i
0d
0a
0x
0p
0h
0c
1,"
0*"
b11100 .
0("
b11101 (
b10010 #
b10010 )
1'
#124
0'
#125
1)"
1r
0'"
b11110 ]
0q
0>
b10011 $
b10011 +
b10011 -
1}
1@
1?
1U
07
0V
1x
1p
1h
1c
b11110 (
b10011 #
b10011 )
b11101 .
1("
1'
#126
0'
#127
1'"
b11111 ]
1q
b10001 $
b10001 +
b10001 -
0""
0@
1T
0U
0S
1V
0X
1~
1y
1i
1d
1a
0x
0p
0h
0c
1*"
b11110 .
0("
b11111 (
b10001 #
b10001 )
1'
#128
0'
#129
13"
1o
01"
0/"
b10 \
0n
0w
0B
1H
18
1C
0-"
0+"
0I
0u
0G
0t
1K
1J
1<
0)"
0'"
b10000 $
b10000 +
b10000 -
0}
0r
b0 ]
0q
0R
11
1N
1@
1U
0O
0V
1x
1p
1h
1c
b0 (
b10000 #
b10000 )
b11111 .
1("
1'
#130
0'
#131
1:
0<
0;
1'"
01"
0-"
0)"
1q
b10 \
0n
1E
0u
19
b1 ]
0r
1=
1>
1R
08
0J
01
0@
0H
0F
0P
0K
0L
0T
0N
0?
0U
05
1G
1I
16
1Q
1/
1M
10
1S
17
1O
1V
0Y
1Z
1[
1W
1X
1|
1`
0m
0_
b0 $
b0 +
b0 -
0{
0v
0l
0g
0#"
0z
0j
0f
0^
0$"
0!"
0s
0k
0e
0b
0~
0y
0i
0d
0a
0x
0p
0h
0c
14"
b10 ,
02"
00"
0."
0,"
0*"
b0 .
0("
b1 (
b0 #
b0 )
1'
#132
0'
#133
1)"
1r
0'"
b10 ]
0q
0>
b1 $
b1 +
b1 -
1}
1@
1?
1U
07
0V
1x
1p
1h
1c
b10 (
b1 #
b1 )
b1 .
1("
1'
#134
0'
